{
	"host": "A3E6E4K3Y6NMMP.iot.eu-west-1.amazonaws.com",
	"port": 8883,
	"clientId": "Gateway",
	"thingName": "Gateway",
	"caCert": "root-CA.crt",
	"clientCert": "3f244e2748-certificate.pem.crt",
	"privateKey": "3f244e2748-private.pem.key"
}
